^C:\USERS\PAVEL\DOCUMENTS\ASTEROIDATACK\ASTEROIDATACK.MKB
C:\MARMALADE\7.4\MODULES\THIRD_PARTY\COCOS2DX\COCOS2DX\PROJ.MARMALADE\COCOS2DX.MKF
C:\MARMALADE\7.4\MODULES\THIRD_PARTY\COCOS2DX\COCOS2DX\PLATFORM\THIRD_PARTY\MARMALADE\LIBTIFF\LIBTIFF.MKF
C:\MARMALADE\7.4\MODULES\THIRD_PARTY\COCOS2DX\SCRIPTING\LUA\PROJ.MARMALADE\LUA.MKF
C:\MARMALADE\7.4\EXTENSIONS\S3EFLURRY\S3EFLURRY.MKF
C:\MARMALADE\7.4\EXTENSIONS\S3EIOSAPPSTOREBILLING\S3EIOSAPPSTOREBILLING.MKF
C:\MARMALADE\7.4\QUICK\QUICKUSER.MKF
C:\MARMALADE\7.4\MODULES\IWUTIL\IWUTIL.MKF
C:\MARMALADE\7.4\MODULES\THIRD_PARTY\COCOS2DX\COCOS2DX\PLATFORM\THIRD_PARTY\MARMALADE\FREETYPE.MKF
C:\MARMALADE\7.4\MODULES\THIRD_PARTY\ZLIB\ZLIB.MKF
C:\MARMALADE\7.4\MODULES\THIRD_PARTY\LIBPNG\LIBPNG.MKF
C:\MARMALADE\7.4\S3E\S3E.MKF
C:\MARMALADE\7.4\MODULES\IWGL\IWGL.MKF
C:\MARMALADE\7.4\QUICK\QUICK.MKF
C:\MARMALADE\7.4\MODULES\THIRD_PARTY\COCOS2DX\COCOS2DX\PLATFORM\THIRD_PARTY\MARMALADE\LIBXML2.MKF
C:\MARMALADE\7.4\MODULES\THIRD_PARTY\OPENQUICK\PROJ.MARMALADE\OPENQUICK.MKF
C:\MARMALADE\7.4\MODULES\THIRD_PARTY\COCOS2DX\EXTERNAL\BOX2D\PROJ.MARMALADE\BOX2D.MKF
C:\MARMALADE\7.4\EXTENSIONS\S3EBBAPPWORLDBILLING\S3EBBAPPWORLDBILLING.MKF
C:\MARMALADE\7.4\S3E\S3E-DEFAULT.MKF
C:\MARMALADE\7.4\EXTENSIONS\FORTUMO\FORTUMO.MKF
C:\MARMALADE\7.4\EXTENSIONS\S3EAMAZONINAPPPURCHASING\S3EAMAZONINAPPPURCHASING.MKF
C:\MARMALADE\7.4\MODULES\THIRD_PARTY\COCOS2DX\COCOSDENSHION\PROJ.MARMALADE\COCOSDENSHION.MKF
C:\MARMALADE\7.4\MODULES\THIRD_PARTY\LIBJPEG\LIBJPEG.MKF
C:\MARMALADE\7.4\EXTENSIONS\S3EWEBVIEW\S3EWEBVIEW.MKF
C:\MARMALADE\7.4\EXTENSIONS\S3EANDROIDGOOGLEPLAYBILLING\S3EANDROIDGOOGLEPLAYBILLING.MKF
C:\MARMALADE\7.4\EXTENSIONS\S3ESAMSUNGINAPPPURCHASING\S3ESAMSUNGINAPPPURCHASING.MKF
C:\MARMALADE\7.4\EXTENSIONS\S3EANDROIDMARKETBILLING\S3EANDROIDMARKETBILLING.MKF
C:\MARMALADE\7.4\MODULES\IWBILLING\IWBILLING.MKF
C:\MARMALADE\7.4\EXTENSIONS\S3EWINDOWSSTOREBILLING\S3EWINDOWSSTOREBILLING.MKF
C:\MARMALADE\7.4\EXTENSIONS\S3EFACEBOOK\S3EFACEBOOK.MKF