S3E runtime Crashlog
--------------------

System Information:

   SDK Version    : 7.4.2 [409586] (S3E ABI v4.39.0)
   OS             : WINDOWS (3)
   OS Version     : Windows 6.2 (6.2)
   Device ID      : Windows Simulator (1)
   Device Class   : WINDOWS_GENERIC (3000)

Crash Information:

Memory exception (11) attempting to access: FFFFFFFC [ip=64879619]
